<svg width="25" height="25" viewBox="0 0 25 25" fill="none" xmlns="http://www.w3.org/2000/svg">
<path d="M5.19059 7.49779C6.44934 7.49779 7.46976 6.47737 7.46976 5.21862C7.46976 3.95987 6.44934 2.93945 5.19059 2.93945C3.93184 2.93945 2.91142 3.95987 2.91142 5.21862C2.91142 6.47737 3.93184 7.49779 5.19059 7.49779Z" fill="#404040"/>
<path d="M9.62184 9.22461V21.8694H13.5479V15.6163C13.5479 13.9663 13.8583 12.3684 15.9041 12.3684C17.9218 12.3684 17.9468 14.2548 17.9468 15.7204V21.8704H21.875V14.9361C21.875 11.5298 21.1416 8.91211 17.1604 8.91211C15.2489 8.91211 13.9677 9.96107 13.4437 10.9538H13.3906V9.22461H9.62184ZM3.22392 9.22461H7.15621V21.8694H3.22392V9.22461Z" fill="#404040"/>
</svg>
